<?xml version="1.0" encoding="UTF-8"?>
<svg xmlns="http://www.w3.org/2000/svg" xmlns:xlink="http://www.w3.org/1999/xlink" width="40pt" height="40pt" viewBox="0 0 40 40" version="1.1">
<g id="surface1">
<path style=" stroke:none;fill-rule:nonzero;fill:rgb(0%,0%,0%);fill-opacity:1;" d="M 40 8.035156 C 40 7.433594 39.765625 6.863281 39.335938 6.4375 L 38.445312 5.546875 C 38.019531 5.117188 37.449219 4.882812 36.847656 4.882812 C 36.242188 4.882812 35.671875 5.117188 35.246094 5.546875 L 31.050781 9.738281 L 31.050781 5.269531 C 31.050781 4.832031 30.695312 4.472656 30.257812 4.472656 L 0.796875 4.472656 C 0.355469 4.472656 0 4.832031 0 5.269531 L 0 34.730469 C 0 35.167969 0.355469 35.527344 0.796875 35.527344 L 30.253906 35.527344 C 30.695312 35.527344 31.050781 35.167969 31.050781 34.730469 L 31.050781 17.921875 L 39.335938 9.636719 C 39.765625 9.210938 40 8.640625 40 8.035156 Z M 29.460938 33.933594 L 1.59375 33.933594 L 1.59375 6.066406 L 29.457031 6.066406 L 29.457031 11.332031 L 14.871094 25.917969 C 14.785156 26.007812 14.71875 26.113281 14.679688 26.230469 L 13.195312 30.679688 C 13.101562 30.964844 13.175781 31.28125 13.386719 31.496094 C 13.539062 31.644531 13.742188 31.726562 13.953125 31.726562 C 14.035156 31.726562 14.121094 31.714844 14.203125 31.6875 L 18.652344 30.203125 C 18.769531 30.164062 18.875 30.097656 18.964844 30.011719 L 29.460938 19.515625 Z M 17.96875 28.75 L 15.210938 29.671875 L 16.128906 26.914062 L 33.050781 9.992188 L 34.886719 11.832031 Z M 38.210938 8.511719 L 36.015625 10.707031 L 35.097656 9.785156 L 34.175781 8.867188 L 36.371094 6.671875 C 36.496094 6.546875 36.667969 6.476562 36.847656 6.476562 C 37.023438 6.476562 37.195312 6.546875 37.320312 6.671875 L 38.210938 7.5625 C 38.335938 7.6875 38.40625 7.859375 38.40625 8.035156 C 38.40625 8.214844 38.335938 8.382812 38.210938 8.511719 Z M 38.210938 8.511719 "/>
<path style=" stroke:none;fill-rule:nonzero;fill:rgb(0%,0%,0%);fill-opacity:1;" d="M 24.855469 9.453125 L 24.09375 9.453125 C 23.652344 9.453125 23.296875 9.8125 23.296875 10.25 C 23.296875 10.691406 23.652344 11.046875 24.09375 11.046875 L 24.855469 11.046875 C 25.292969 11.046875 25.648438 10.691406 25.648438 10.25 C 25.652344 9.8125 25.292969 9.453125 24.855469 9.453125 Z M 24.855469 9.453125 "/>
<path style=" stroke:none;fill-rule:nonzero;fill:rgb(0%,0%,0%);fill-opacity:1;" d="M 20.632812 9.453125 L 6.113281 9.453125 C 5.675781 9.453125 5.316406 9.8125 5.316406 10.25 C 5.316406 10.691406 5.675781 11.046875 6.113281 11.046875 L 20.632812 11.046875 C 21.074219 11.046875 21.429688 10.691406 21.429688 10.25 C 21.429688 9.8125 21.074219 9.453125 20.632812 9.453125 Z M 20.632812 9.453125 "/>
<path style=" stroke:none;fill-rule:nonzero;fill:rgb(0%,0%,0%);fill-opacity:1;" d="M 19.875 14.097656 L 6.113281 14.097656 C 5.675781 14.097656 5.316406 14.453125 5.316406 14.894531 C 5.316406 15.332031 5.675781 15.691406 6.113281 15.691406 L 19.875 15.691406 C 20.3125 15.691406 20.671875 15.332031 20.671875 14.894531 C 20.671875 14.453125 20.3125 14.097656 19.875 14.097656 Z M 19.875 14.097656 "/>
<path style=" stroke:none;fill-rule:nonzero;fill:rgb(0%,0%,0%);fill-opacity:1;" d="M 14.894531 18.738281 L 6.113281 18.738281 C 5.675781 18.738281 5.316406 19.097656 5.316406 19.535156 C 5.316406 19.976562 5.675781 20.332031 6.113281 20.332031 L 14.894531 20.332031 C 15.332031 20.332031 15.691406 19.976562 15.691406 19.535156 C 15.691406 19.097656 15.332031 18.738281 14.894531 18.738281 Z M 14.894531 18.738281 "/>
<path style=" stroke:none;fill-rule:nonzero;fill:rgb(0%,0%,0%);fill-opacity:1;" d="M 11.09375 23.296875 L 6.113281 23.296875 C 5.675781 23.296875 5.316406 23.652344 5.316406 24.09375 C 5.316406 24.535156 5.675781 24.890625 6.113281 24.890625 L 11.09375 24.890625 C 11.535156 24.890625 11.890625 24.535156 11.890625 24.09375 C 11.890625 23.652344 11.535156 23.296875 11.09375 23.296875 Z M 11.09375 23.296875 "/>
</g>
</svg>
